module gitlab.com/tu-social/mtg/v2

go 1.18

require (
	github.com/OneOfOne/xxhash v1.2.8
	github.com/alecthomas/kong v0.6.1
	github.com/alecthomas/units v0.0.0-20211218093645-b94a6e3cc137
	github.com/armon/go-socks5 v0.0.0-20160902184237-e75332964ef5
	github.com/babolivier/go-doh-client v0.0.0-20201028162107-a76cff4cb8b6
	github.com/d4l3k/messagediff v1.2.1 // indirect
	github.com/golang/protobuf v1.5.2 // indirect
	github.com/gotd/td v0.34.0
	github.com/jarcoal/httpmock v1.0.8
	github.com/mccutchen/go-httpbin v1.1.1
	github.com/panjf2000/ants/v2 v2.5.0
	github.com/pelletier/go-toml v1.9.5
	github.com/prometheus/client_golang v1.13.0
	github.com/prometheus/common v0.37.0 // indirect
	github.com/prometheus/procfs v0.8.0 // indirect
	github.com/rs/zerolog v1.27.0
	github.com/smira/go-statsd v1.3.2
	github.com/stretchr/objx v0.3.0 // indirect
	github.com/stretchr/testify v1.7.2
	github.com/tylertreat/BoomFilters v0.0.0-20210315201527-1a82519a3e43
	golang.org/x/crypto v0.0.0-20220722155217-630584e8d5aa
	golang.org/x/net v0.0.0-20220225172249-27dd8689420f // indirect
	golang.org/x/sys v0.0.0-20220804214406-8e32c043e418
	google.golang.org/protobuf v1.28.1 // indirect
)

require (
	github.com/txthinking/socks5 v0.0.0-20220615051428-39268faee3e6
	github.com/yl2chen/cidranger v1.0.2
)

require (
	github.com/beorn7/perks v1.0.1 // indirect
	github.com/cenkalti/backoff/v4 v4.1.0 // indirect
	github.com/cespare/xxhash/v2 v2.1.2 // indirect
	github.com/davecgh/go-spew v1.1.1 // indirect
	github.com/gotd/ige v0.1.5 // indirect
	github.com/gotd/xor v0.1.1 // indirect
	github.com/mattn/go-colorable v0.1.12 // indirect
	github.com/mattn/go-isatty v0.0.14 // indirect
	github.com/matttproud/golang_protobuf_extensions v1.0.1 // indirect
	github.com/patrickmn/go-cache v2.1.0+incompatible // indirect
	github.com/pmezard/go-difflib v1.0.0 // indirect
	github.com/prometheus/client_model v0.2.0 // indirect
	github.com/txthinking/runnergroup v0.0.0-20220212043759-8da8edb7dae8 // indirect
	github.com/txthinking/x v0.0.0-20210326105829-476fab902fbe // indirect
	go.uber.org/atomic v1.7.0 // indirect
	go.uber.org/multierr v1.6.0 // indirect
	go.uber.org/zap v1.16.0 // indirect
	golang.org/x/sync v0.0.0-20220601150217-0de741cfad7f // indirect
	golang.org/x/xerrors v0.0.0-20200804184101-5ec99f83aff1 // indirect
	gopkg.in/yaml.v3 v3.0.1 // indirect
)
